test_run_dir/Vending_machine_test_should_pass/VendingMachine.vcd
$date
2024-03-09T10:27+0000
$end
$version
0.2
$end
$comment

$end
$timescale 1ns  $end
$scope module VendingMachine $end
 $var wire 4 $ io_an $end
 $var wire 1 ) io_alarm $end
 $var wire 1 + io_releaseCan $end
 $var wire 1 , reset $end
 $var wire 1 . fsm $end
 $var wire 1 / sub $end
 $var wire 5 3 io_price $end
 $var wire 1 6 dispMux $end
 $var wire 1 < io_buy $end
 $var wire 1 > io_coin5 $end
 $var wire 1 ? io_coin2 $end
 $var wire 1 @ add $end
 $var wire 8 B sumReg $end
 $var wire 1 C clock $end
 $var wire 3 E coinVal $end
 $var wire 1 F coin $end
 $var wire 7 H io_seg $end
 $var wire 1 I alarm $end
 $var wire 1 J releaseCan $end
  $scope module fsm $end
   $var wire 1 " io_alarm $end
   $var wire 5 % io_price $end
   $var wire 1 0 reset $end
   $var wire 1 4 io_releaseCan $end
   $var wire 1 7 clock $end
   $var wire 8 9 io_sum $end
   $var wire 3 : stateReg $end
   $var wire 1 A io_sub $end
   $var wire 1 D io_coin $end
   $var wire 1 G io_add $end
   $var wire 1 K io_buy $end
  $upscope $end
  $scope module dispMux.decoder $end
  $upscope $end
  $scope module dispMux $end
   $var wire 4 ! io_an $end
   $var wire 32 # tickCounterReg $end
   $var wire 7 & io_seg $end
   $var wire 8 ' io_sum $end
   $var wire 1 ( tick $end
   $var wire 1 * decoder $end
   $var wire 8 2 io_price $end
   $var wire 1 5 reset $end
   $var wire 1 ; clock $end
   $var wire 4 = select $end
   $var wire 7 L sevSeg $end
    $scope module decoder $end
     $var wire 7 - io_out $end
     $var wire 7 1 sevSeg $end
     $var wire 4 8 io_in $end
    $upscope $end
  $upscope $end
$upscope $end
$enddefinitions $end
$dumpvars
00
b0000000 L
04
b00000000 '
05
b000 E
06
07
b00000000000000000000000000000000 #
0;
0<
0>
0?
b0000000 H
0@
0A
b00000 %
0C
0D
0F
b00000000 9
0G
0I
b00000000 2
0J
0K
b000 :
b0000 $
b00000 3
b0000000 -
b0000 !
b0000000 1
b00000000 B
b0000000 &
0"
0(
b0000 =
0)
0*
0+
b0000 8
0,
0.
0/
$end
#0
10
b1111 !
b0111111 1
b1111 $
15
b1000000 &
b1000000 H
1,
b1000000 L
b1000000 -
#1
b1110 !
1C
b1110 $
17
1;
b0001 =
#6
0C
b00111 %
b1111000 &
b1111000 H
0,
b1111000 L
b1111000 -
00
b0000111 1
b00000111 2
b00111 3
05
07
b0111 8
0;
#11
b00000000000000000000000000000001 #
1C
17
1;
#16
0C
07
0;
#21
b00000000000000000000000000000010 #
1C
17
1;
#26
0C
07
0;
#31
b00000000000000000000000000000011 #
1C
17
1;
#36
0C
07
0;
#41
b00000000000000000000000000000100 #
1C
17
1;
#46
0C
07
0;
#51
b00000000000000000000000000000101 #
1C
17
1;
#56
0C
07
0;
#61
b00000000000000000000000000000110 #
1C
17
1;
#66
0C
1D
b010 E
1F
07
0;
1?
#71
1@
b00000000000000000000000000000111 #
1C
17
1G
b100 :
1;
#76
0C
07
0;
#81
0@
b00000010 B
b00000000000000000000000000001000 #
1C
b00000010 '
17
0G
b00000010 9
b101 :
1;
#86
0C
07
0;
#91
b00000000000000000000000000001001 #
1C
17
1;
#96
0C
07
0;
#101
b00000000000000000000000000001010 #
1C
17
1;
#106
0C
07
0;
#111
b00000000000000000000000000001011 #
1C
17
1;
#116
0C
07
0;
#121
b00000000000000000000000000001100 #
1C
17
1;
#126
0C
0D
b000 E
0F
07
0;
0?
#131
b00000000000000000000000000001101 #
1C
17
b000 :
1;
#136
0C
07
0;
#141
b00000000000000000000000000001110 #
1C
17
1;
#146
0C
07
0;
#151
b00000000000000000000000000001111 #
1C
17
1;
#156
0C
07
0;
#161
b00000000000000000000000000010000 #
1C
17
1;
#166
0C
07
0;
#171
b00000000000000000000000000010001 #
1C
17
1;
#176
0C
07
0;
#181
b00000000000000000000000000010010 #
1C
17
1;
#186
0C
1D
b101 E
1F
07
0;
1>
#191
1@
b00000000000000000000000000010011 #
1C
17
1G
1(
b100 :
1;
#196
0C
07
0;
#201
0@
b1101 !
b00000111 B
b00000000000000000000000000000000 #
1C
b1101 $
b1000000 &
b00000111 '
0G
0(
b1000000 H
b1000000 L
b1000000 -
b0111111 1
17
b0000 8
b00000111 9
b101 :
1;
b0010 =
#206
0C
07
0;
#211
b00000000000000000000000000000001 #
1C
17
1;
#216
0C
07
0;
#221
b00000000000000000000000000000010 #
1C
17
1;
#226
0C
07
0;
#231
b00000000000000000000000000000011 #
1C
17
1;
#236
0C
07
0;
#241
b00000000000000000000000000000100 #
1C
17
1;
#246
0C
0D
b000 E
0F
07
0;
0>
#251
b00000000000000000000000000000101 #
1C
17
b000 :
1;
#256
0C
07
0;
#261
b00000000000000000000000000000110 #
1C
17
1;
#266
0C
07
0;
#271
b00000000000000000000000000000111 #
1C
17
1;
#276
0C
07
0;
#281
b00000000000000000000000000001000 #
1C
17
1;
#286
0C
07
0;
#291
b00000000000000000000000000001001 #
1C
17
1;
#296
0C
07
0;
#301
b00000000000000000000000000001010 #
1C
17
1;
#306
0C
07
0;
#311
b00000000000000000000000000001011 #
1C
17
1;
#316
0C
07
0;
#321
b00000000000000000000000000001100 #
1C
17
1;
#326
0C
07
0;
1K
1<
#331
1A
b00000000000000000000000000001101 #
1C
14
17
b001 :
1J
1+
1;
1/
#336
0C
07
0;
#341
0A
b00000000 B
b00000000000000000000000000001110 #
1C
b00000000 '
17
b00000000 9
b010 :
1;
0/
#346
0C
07
0;
#351
b00000000000000000000000000001111 #
1C
17
1;
#356
0C
07
0;
#361
b00000000000000000000000000010000 #
1C
17
1;
#366
0C
07
0;
#371
b00000000000000000000000000010001 #
1C
17
1;
#376
0C
07
0;
#381
b00000000000000000000000000010010 #
1C
17
1;
#386
0C
07
0;
0K
0<
#391
b00000000000000000000000000010011 #
1C
04
17
1(
b000 :
0J
0+
1;
#396
0C
07
0;
#401
b1011 !
b00000000000000000000000000000000 #
1C
b1011 $
17
0(
1;
b0100 =
#406
0C
07
0;
#411
b00000000000000000000000000000001 #
1C
17
1;
#416
0C
07
0;
#421
b00000000000000000000000000000010 #
1C
17
1;
#426
0C
07
0;
#431
b00000000000000000000000000000011 #
1C
17
1;
#436
0C
07
0;
#441
b00000000000000000000000000000100 #
1C
17
1;
#446
0C
07
0;
#451
b00000000000000000000000000000101 #
1C
17
1;
#456
0C
07
0;
#461
b00000000000000000000000000000110 #
1C
17
1;
#466
0C
07
0;
#471
b00000000000000000000000000000111 #
1C
17
1;
#476
0C
07
0;
#481
b00000000000000000000000000001000 #
1C
17
1;
#486
b00000 3
0C
