test_run_dir/Vending_machine_test_should_pass/VendingMachine.vcd
$date
2024-03-14T15:55+0000
$end
$version
0.2
$end
$comment

$end
$timescale 1ns  $end
$scope module VendingMachine $end
 $var wire 4 & io_an $end
 $var wire 1 C empty $end
 $var wire 1 H add $end
 $var wire 1 I coin5Deb $end
 $var wire 7 Q sumReg $end
 $var wire 7 \ io_seg $end
 $var wire 1 g io_coin5Raw $end
 $var wire 8 j numCanReg $end
 $var wire 1 r fsm $end
 $var wire 1 w dispMux $end
 $var wire 1 } clock $end
 $var wire 1 "! coin2Deb $end
 $var wire 1 "- sub $end
 $var wire 1 "/ coin5 $end
 $var wire 1 "2 coin2 $end
 $var wire 1 "4 buyDeb $end
 $var wire 1 "6 buy $end
 $var wire 3 "= coinVal $end
 $var wire 1 "> io_buyRaw $end
 $var wire 1 "P io_alarm $end
 $var wire 1 "S io_releaseCan $end
 $var wire 1 "T reset $end
 $var wire 5 "e io_price $end
 $var wire 1 #) alarm $end
 $var wire 1 #+ releaseCan $end
 $var wire 1 #- io_coin2Raw $end
  $scope module coin5Deb.fsm $end
  $upscope $end
  $scope module coin5Deb $end
   $var wire 1 V io_in $end
   $var wire 1 y fsm $end
   $var wire 1 ~ reset $end
   $var wire 27 "R countReg $end
   $var wire 1 "_ clock $end
   $var wire 1 #, io_out $end
    $scope module fsm $end
     $var wire 1 E clock $end
     $var wire 1 p io_din $end
     $var wire 27 "( io_countReg $end
     $var wire 1 "+ io_dout $end
     $var wire 1 "0 io_runTimer $end
     $var wire 2 "8 stateReg $end
     $var wire 1 "Q reset $end
    $upscope $end
  $upscope $end
  $scope module fsm $end
   $var wire 8 B io_numOfCan $end
   $var wire 8 { io_sum $end
   $var wire 1 | io_sub $end
   $var wire 1 "# io_buy $end
   $var wire 1 "1 io_releaseCan $end
   $var wire 1 "3 clock $end
   $var wire 3 "7 stateReg $end
   $var wire 1 "E io_alarm $end
   $var wire 5 "I io_price $end
   $var wire 1 "^ reset $end
   $var wire 1 "z io_coin $end
   $var wire 1 "| io_empty $end
   $var wire 1 "} io_add $end
  $upscope $end
  $scope module dispMux.decoder $end
  $upscope $end
  $scope module buyDeb.fsm $end
  $upscope $end
  $scope module buyDeb $end
   $var wire 1 8 clock $end
   $var wire 1 n io_in $end
   $var wire 1 v reset $end
   $var wire 1 z io_out $end
   $var wire 27 "% countReg $end
   $var wire 1 "x fsm $end
    $scope module fsm $end
     $var wire 1 ' io_dout $end
     $var wire 1 + io_din $end
     $var wire 1 m io_runTimer $end
     $var wire 1 x reset $end
     $var wire 2 ", stateReg $end
     $var wire 1 ". clock $end
     $var wire 27 "< io_countReg $end
    $upscope $end
  $upscope $end
  $scope module coin2Deb.fsm $end
  $upscope $end
  $scope module coin2Deb $end
   $var wire 1 t reset $end
   $var wire 1 u io_in $end
   $var wire 1 ": io_out $end
   $var wire 1 "o clock $end
   $var wire 1 "w fsm $end
   $var wire 27 "~ countReg $end
    $scope module fsm $end
     $var wire 1 - io_din $end
     $var wire 1 s clock $end
     $var wire 27 "' io_countReg $end
     $var wire 1 "5 io_runTimer $end
     $var wire 2 "9 stateReg $end
     $var wire 1 "; reset $end
     $var wire 1 "d io_dout $end
    $upscope $end
  $upscope $end
  $scope module dispMux $end
   $var wire 7 ! io_customIn_2 $end
   $var wire 7 " io_customIn_3 $end
   $var wire 7 # io_customIn_0 $end
   $var wire 7 $ io_customIn_1 $end
   $var wire 17 % tickCounterReg $end
   $var wire 7 ( io_seg $end
   $var wire 1 ) decoder $end
   $var wire 1 D clock $end
   $var wire 1 q tick $end
   $var wire 1 "" table $end
   $var wire 7 "$ sevSeg $end
   $var wire 4 "& io_an $end
   $var wire 7 ") io_sum $end
   $var wire 5 "` io_price $end
   $var wire 1 "l reset $end
   $var wire 2 "y selectReg $end
    $scope module decoder $end
     $var wire 7 * io_out $end
     $var wire 7 , sevSeg $end
     $var wire 7 o io_customIn $end
     $var wire 1 "* io_custom $end
     $var wire 4 "v io_in $end
    $upscope $end
    $scope module table $end
     $var wire 8 . table_10 $end
     $var wire 8 / table_11 $end
     $var wire 8 0 table_12 $end
     $var wire 8 1 table_13 $end
     $var wire 8 2 table_14 $end
     $var wire 8 3 table_15 $end
     $var wire 8 4 table_16 $end
     $var wire 8 5 table_17 $end
     $var wire 8 6 table_18 $end
     $var wire 8 7 table_19 $end
     $var wire 8 9 table_21 $end
     $var wire 8 : table_22 $end
     $var wire 8 ; table_23 $end
     $var wire 8 < table_24 $end
     $var wire 8 = table_25 $end
     $var wire 8 > table_26 $end
     $var wire 8 ? table_27 $end
     $var wire 8 @ table_28 $end
     $var wire 8 A table_29 $end
     $var wire 8 F table_20 $end
     $var wire 8 G table_32 $end
     $var wire 8 J table_33 $end
     $var wire 8 K table_34 $end
     $var wire 8 L table_35 $end
     $var wire 8 M table_36 $end
     $var wire 8 N table_37 $end
     $var wire 8 O table_38 $end
     $var wire 8 P table_39 $end
     $var wire 8 R table_30 $end
     $var wire 8 S table_31 $end
     $var wire 8 T table_43 $end
     $var wire 8 U table_44 $end
     $var wire 8 W table_45 $end
     $var wire 8 X table_46 $end
     $var wire 8 Y table_47 $end
     $var wire 8 Z table_48 $end
     $var wire 8 [ table_49 $end
     $var wire 8 ] table_40 $end
     $var wire 8 ^ table_41 $end
     $var wire 8 _ table_42 $end
     $var wire 8 ` table_54 $end
     $var wire 8 a table_55 $end
     $var wire 8 b table_56 $end
     $var wire 8 c table_57 $end
     $var wire 8 d table_58 $end
     $var wire 8 e table_59 $end
     $var wire 8 f io_address $end
     $var wire 8 h table_50 $end
     $var wire 8 i table_51 $end
     $var wire 8 k table_52 $end
     $var wire 8 l table_53 $end
     $var wire 8 "? table_65 $end
     $var wire 8 "@ table_66 $end
     $var wire 8 "A io_data $end
     $var wire 8 "B table_67 $end
     $var wire 8 "C table_68 $end
     $var wire 8 "D table_69 $end
     $var wire 8 "F table_60 $end
     $var wire 8 "G table_61 $end
     $var wire 8 "H table_62 $end
     $var wire 8 "J table_63 $end
     $var wire 8 "K table_64 $end
     $var wire 8 "L table_76 $end
     $var wire 8 "M table_77 $end
     $var wire 8 "N table_78 $end
     $var wire 8 "O table_79 $end
     $var wire 8 "U table_70 $end
     $var wire 8 "V table_71 $end
     $var wire 8 "W table_72 $end
     $var wire 8 "X table_73 $end
     $var wire 8 "Y table_74 $end
     $var wire 8 "Z table_75 $end
     $var wire 8 "[ table_87 $end
     $var wire 8 "\ table_88 $end
     $var wire 8 "] table_89 $end
     $var wire 8 "a table_80 $end
     $var wire 8 "b table_81 $end
     $var wire 8 "c table_82 $end
     $var wire 8 "f table_83 $end
     $var wire 8 "g table_84 $end
     $var wire 8 "h table_85 $end
     $var wire 8 "i table_86 $end
     $var wire 8 "j table_98 $end
     $var wire 8 "k table_99 $end
     $var wire 8 "m table_90 $end
     $var wire 8 "n table_91 $end
     $var wire 8 "p table_92 $end
     $var wire 8 "q table_93 $end
     $var wire 8 "r table_94 $end
     $var wire 8 "s table_95 $end
     $var wire 8 "t table_96 $end
     $var wire 8 "u table_97 $end
     $var wire 8 "{ table_0 $end
     $var wire 8 #! table_2 $end
     $var wire 8 #" table_1 $end
     $var wire 8 ## table_4 $end
     $var wire 8 #$ table_3 $end
     $var wire 8 #% table_6 $end
     $var wire 8 #& table_5 $end
     $var wire 8 #' table_8 $end
     $var wire 8 #( table_7 $end
     $var wire 8 #* table_9 $end
    $upscope $end
  $upscope $end
  $scope module dispMux.table $end
  $upscope $end
$upscope $end
$enddefinitions $end
$dumpvars
b00000000 k
b00000000 j
b00000000000000000 %
b00000000 l
b00000000 f
b00000000 i
b00000000 h
08
b00000000 c
b00000000 b
b00000000 e
b00000000 d
b00000000 _
b00000000 ^
b00000000 a
b00000000 `
b00000000 {
0C
b0000 "v
0D
0E
0H
0I
b00000000 K
b00000000 J
b00000000 M
b00000000 L
b00000000 G
b00000000 F
0V
b00000000 B
b00000000 ?
b00000000 >
b0000 &
b00000000 A
b00000000 @
b00000000 [
b00000000 Z
b00000000 ]
b0000000 ")
b00000000 W
b00000000 Y
0g
b00000000 X
b00000000 S
b0000000 "$
b00000000 R
b00000000 U
b00000000 T
b00000000 O
0m
b00000000 N
0n
b00000000 P
0p
0q
0r
0s
0t
0u
0v
0w
0x
0y
0z
0|
0}
0~
b00 "y
0"!
0""
0"#
0"*
0"+
0"-
0".
0"/
0"0
0"1
0"2
b00000000 "g
b00000 "I
0"3
b00000000 "f
0"4
0"5
0"6
b00000000 "k
b00000000 "j
b00000000 "i
b00000000 "h
0":
0";
b00000000 "n
b00000000 "m
0">
b00000000 "s
b00000000 "r
b00000000 "q
b00000000 "p
b00000000 "u
0"E
b00000000 "t
b00000000 "{
0#)
0#+
0#,
0#-
0"P
0"Q
b00 "9
b00 "8
0"S
0"T
b0000000 o
0"^
0"_
0"d
b0000000 \
0"l
b00 ",
0"o
0"w
0"x
b0000000 Q
0"z
0"|
0"}
b0000000 *
b0000000 ,
b0000000 #
b0000000 "
b00000 "`
b0000000 $
b00000 "e
b0000000 (
b0000000 !
b00000000 "?
b00000000 "C
b00000000 #$
b00000000 "B
b00000000 ##
b00000000 "A
b00000000 #"
b00000000 "@
b00000000 #!
b00000000 "G
b00000000 #(
b00000000 "F
b00000000 #'
b00000000 #&
b00000000 "D
b00000000 #%
b00000000 "K
b00000000 "J
b00000000 #*
b00000000 "H
b00000000 "O
b00000000 "N
b00000000 "M
b00000000 "L
b00000000 "W
b00000000 "V
b00000000 "U
b00000000 "[
b00000000 "Z
b00000000 "Y
b00000000 "X
b00000000 "]
b00000000 "\
b00000000 "c
b00000000 "b
b00000000 "a
b000000000000000000000000000 "~
b000000000000000000000000000 "R
b0000 "&
b00000000 ;
b00000000 :
b00000000 =
b00000000 <
b00000000 7
b00000000 6
b00000000 9
b00000000 3
b00000000 2
b00000000 5
b000000000000000000000000000 "<
b00000000 4
b00000000 /
b00000000 .
b00000000 1
b00000000 0
b000000000000000000000000000 "'
b000 "7
b000000000000000000000000000 "%
b000 "=
b000000000000000000000000000 "(
0'
0)
0+
0-
$end
#0
b1110 &
b1000000 (
b1000000 *
b0111111 ,
b00010000 .
b00010001 /
b00010010 0
b00010011 1
b00010100 2
b00010101 3
b00010110 4
b00010111 5
b00011000 6
b00011001 7
b00100001 9
b00100010 :
b00100011 ;
b00100100 <
b00100101 =
b00100110 >
b00100111 ?
b00101000 @
b00101001 A
b1000000 "$
b1110 "&
b00100000 F
b00110010 G
b00110011 J
b00110100 K
b00110101 L
b00110110 M
b00110111 N
b00111000 O
b00111001 P
b00110000 R
b00110001 S
b01000011 T
b01000100 U
b01000101 W
b01000110 X
b01000111 Y
1";
b01001000 Z
b01001001 [
b1000000 \
b01000000 ]
b01100101 "?
b01000001 ^
b00000010 #!
b01100110 "@
b01000010 _
b00000001 #"
b01010100 `
b00000100 ##
b01100111 "B
b01010101 a
b00000011 #$
b01101000 "C
b01010110 b
b00000110 #%
b01101001 "D
b01010111 c
b00000101 #&
b01011000 d
b00001000 #'
b01100000 "F
b01011001 e
b00000111 #(
b01100001 "G
b01100010 "H
b00001001 #*
b01010000 h
b01100011 "J
b01010001 i
b01100100 "K
b01110110 "L
b01010010 k
b01110111 "M
b01010011 l
b01111000 "N
b01111001 "O
1"Q
1"T
b01110000 "U
1t
b01110001 "V
b01110010 "W
1v
b01110011 "X
b01110100 "Y
1x
b01110101 "Z
b10000111 "[
b10001000 "\
b10001001 "]
1"^
1~
b10000000 "a
b10000001 "b
b10000010 "c
b10000011 "f
b10000100 "g
b10000101 "h
b10000110 "i
b10011000 "j
b10011001 "k
1"l
b10010000 "m
b10010001 "n
b10010010 "p
b10010011 "q
b10010100 "r
b10010101 "s
b10010110 "t
b10010111 "u
#1
1"3
b00001010 B
1s
1D
1E
18
b00001010 j
1".
1}
1"_
1"o
#6
b1111000 "$
b00111 "e
0D
0E
0"l
0".
0"o
0"3
b0111 "v
0";
b1111000 \
b00000111 "A
b00000111 f
b00111 "I
b1111000 (
b1111000 *
b0000111 ,
0"Q
0"T
0s
0t
0v
08
0x
0"^
0}
0"_
0~
b00111 "`
#11
1"3
1s
1D
b00000000000000001 %
1E
18
1".
1}
1"_
1"o
#16
0"3
0s
0D
0E
08
0".
0}
0"_
0"o
#21
1"3
1s
1D
b00000000000000010 %
1E
18
1".
1}
1"_
1"o
#26
0"3
0s
0D
0E
08
0".
0}
0"_
0"o
#31
1"3
1s
1D
b00000000000000011 %
1E
18
1".
1}
1"_
1"o
#36
0"3
0s
0D
0E
08
0".
0}
0"_
0"o
#41
1"3
1s
1D
b00000000000000100 %
1E
18
1".
1}
1"_
1"o
#46
0"3
0s
0D
0E
08
0".
0}
0"_
0"o
#51
1"3
1s
1D
b00000000000000101 %
1E
18
1".
1}
1"_
1"o
#56
0"3
0s
0D
0E
08
0".
0}
0"_
0"o
#61
1"3
1s
1D
b00000000000000110 %
1E
18
1".
1}
1"_
1"o
#66
0D
0E
1#-
0".
1-
0"o
0"3
0s
1u
08
0}
0"_
#71
1"d
1D
b00000000000000111 %
1E
1".
1"o
1"2
1"3
1s
b01 "9
18
1":
1"z
b010 "=
1}
1"_
#76
0"3
0s
0D
0E
08
0".
0}
0"_
0"o
#81
1D
b00000000000001000 %
1E
1H
1".
1"o
1"3
1s
b100 "7
18
1"}
1}
1"_
#86
0"3
0s
0D
0E
08
0".
0}
0"_
0"o
#91
1D
b00000000000001001 %
1E
b0000010 ")
0H
1".
1"o
b0000010 Q
1"3
1s
b101 "7
18
b00000010 {
0"}
1}
1"_
#96
0"3
0s
0D
0E
08
0".
0}
0"_
0"o
#101
1"3
1s
1D
b00000000000001010 %
1E
18
1".
1}
1"_
1"o
#106
0"3
0s
0D
0E
08
0".
0}
0"_
0"o
#111
1"3
1s
1D
b00000000000001011 %
1E
18
1".
1}
1"_
1"o
#116
0"3
0s
0D
0E
08
0".
0}
0"_
0"o
#121
1"3
1s
1D
b00000000000001100 %
1E
18
1".
1}
1"_
1"o
#126
0D
0E
0#-
0".
0-
0"o
0"3
0s
0u
08
0}
0"_
#131
1D
b00000000000001101 %
1E
1".
1"o
1"3
1s
1"5
b10 "9
18
1}
1"_
#136
0"3
0s
0D
0E
08
0".
0}
0"_
0"o
#141
0"d
1D
b00000000000001110 %
1E
b000000000000000000000000001 "'
1".
1"o
0"2
1"3
1s
0"5
b00 "9
18
0":
0"z
b000 "=
b000000000000000000000000001 "~
1}
1"_
#146
0"3
0s
0D
0E
08
0".
0}
0"_
0"o
#151
1D
b00000000000001111 %
1E
b000000000000000000000000000 "'
1".
1"o
1"3
1s
b000 "7
18
b000000000000000000000000000 "~
1}
1"_
#156
0"3
0s
0D
0E
08
0".
0}
0"_
0"o
#161
1"3
1s
1D
b00000000000010000 %
1E
18
1".
1}
1"_
1"o
#166
0"3
0s
0D
0E
08
0".
0}
0"_
0"o
#171
1"3
1s
1D
b00000000000010001 %
1E
18
1".
1}
1"_
1"o
#176
0"3
0s
0D
0E
08
0".
0}
0"_
0"o
#181
1"3
1s
1D
b00000000000010010 %
1E
18
1".
1}
1"_
1"o
#186
0D
0E
1g
0".
0"o
1p
0"3
0s
1V
08
0}
0"_
#191
1D
b00000000000010011 %
1E
1"+
1#,
1".
1"/
1"o
1q
1"3
1s
b01 "8
18
1"z
b101 "=
1}
1"_
#196
0"3
0s
0D
0E
08
0".
0}
0"_
0"o
#201
b1000000 "$
1D
b1101 "&
b00000000000000000 %
1E
b1101 &
b1000000 (
1H
b1000000 *
b0111111 ,
1".
1"o
0q
1"3
1s
b0000 "v
b100 "7
b01 "y
18
1"}
b1000000 \
1}
1"_
#206
0"3
0s
0D
0E
08
0".
0}
0"_
0"o
#211
1D
b00000000000000001 %
1E
b0000111 ")
0H
1".
1"o
b0000111 Q
1"3
1s
b101 "7
18
b00000111 {
0"}
1}
1"_
#216
0"3
0s
0D
0E
08
0".
0}
0"_
0"o
#221
1"3
1s
1D
b00000000000000010 %
1E
18
1".
1}
1"_
1"o
#226
0"3
0s
0D
0E
08
0".
0}
0"_
0"o
#231
1"3
1s
1D
b00000000000000011 %
1E
18
1".
1}
1"_
1"o
#236
0"3
0s
0D
0E
08
0".
0}
0"_
0"o
#241
1"3
1s
1D
b00000000000000100 %
1E
18
1".
1}
1"_
1"o
#246
0D
0E
0g
0".
0"o
0p
0"3
0s
0V
08
0}
0"_
#251
1D
b00000000000000101 %
1E
1".
1"o
1"0
1"3
1s
b10 "8
18
1}
1"_
#256
0"3
0s
0D
0E
08
0".
0}
0"_
0"o
#261
1D
b00000000000000110 %
1E
b000000000000000000000000001 "(
0"+
0#,
1".
0"/
1"o
0"0
b000000000000000000000000001 "R
1"3
1s
b00 "8
18
0"z
b000 "=
1}
1"_
#266
0"3
0s
0D
0E
08
0".
0}
0"_
0"o
#271
1D
b00000000000000111 %
1E
b000000000000000000000000000 "(
1".
1"o
b000000000000000000000000000 "R
1"3
1s
b000 "7
18
1}
1"_
#276
0"3
0s
0D
0E
08
0".
0}
0"_
0"o
#281
1"3
1s
1D
b00000000000001000 %
1E
18
1".
1}
1"_
1"o
#286
0"3
0s
0D
0E
08
0".
0}
0"_
0"o
#291
1"3
1s
1D
b00000000000001001 %
1E
18
1".
1}
1"_
1"o
#296
0"3
0s
0D
0E
08
0".
0}
0"_
0"o
#301
1"3
1s
1D
b00000000000001010 %
1E
18
1".
1}
1"_
1"o
#306
0"3
0s
0D
0E
08
0".
0}
0"_
0"o
#311
1"3
1s
1D
b00000000000001011 %
1E
18
1".
1}
1"_
1"o
#316
0"3
0s
0D
0E
08
0".
0}
0"_
0"o
#321
1"3
1s
1D
b00000000000001100 %
1E
18
1".
1}
1"_
1"o
#326
0D
0E
1+
0".
0"o
1n
0"3
0s
08
1">
0}
0"_
#331
1"#
1D
b00000000000001101 %
1E
1'
b01 ",
1".
1"o
1"3
1s
1"6
18
1z
1}
1"_
#336
0"3
0s
0D
0E
08
0".
0}
0"_
0"o
#341
1D
b00000000000001110 %
1E
1#+
1"-
1".
1"o
1"1
1"3
1"S
1s
b001 "7
18
1|
1}
1"_
#346
0"3
0s
0D
0E
08
0".
0}
0"_
0"o
#351
b00001001 B
1D
b00000000000001111 %
1E
b0000000 ")
b00001001 j
0"-
1".
1"o
b0000000 Q
1"3
1s
b010 "7
18
b00000000 {
0|
1}
1"_
#356
0"3
0s
0D
0E
08
0".
0}
0"_
0"o
#361
1"3
1s
1D
b00000000000010000 %
1E
18
1".
1}
1"_
1"o
#366
0"3
0s
0D
0E
08
0".
0}
0"_
0"o
#371
1"3
1s
1D
b00000000000010001 %
1E
18
1".
1}
1"_
1"o
#376
0"3
0s
0D
0E
08
0".
0}
0"_
0"o
#381
1"3
1s
1D
b00000000000010010 %
1E
18
1".
1}
1"_
1"o
#386
0D
0E
0+
0".
0"o
0n
0"3
0s
08
0">
0}
0"_
#391
1D
b00000000000010011 %
1E
b10 ",
1".
1m
1"o
1q
1"3
1s
18
1}
1"_
#396
0"3
0s
0D
0E
08
0".
0}
0"_
0"o
#401
0"#
b000000000000000000000000001 "%
1D
b1011 "&
1E
b00 ",
1".
1"o
1"3
0"6
b10 "y
b000000000000000000000000001 "<
b00000000 "A
b00000000000000000 %
b1011 &
b00000000 f
0'
0m
0q
1s
18
0z
1}
1"_
#406
0"3
0s
0D
0E
08
0".
0}
0"_
0"o
#411
b000000000000000000000000000 "%
1D
b00000000000000001 %
1E
0#+
1".
1"o
0"1
1"3
0"S
1s
b000 "7
18
b000000000000000000000000000 "<
1}
1"_
#416
0"3
0s
0D
0E
08
0".
0}
0"_
0"o
#421
1"3
1s
1D
b00000000000000010 %
1E
18
1".
1}
1"_
1"o
#426
0"3
0s
0D
0E
08
0".
0}
0"_
0"o
#431
1"3
1s
1D
b00000000000000011 %
1E
18
1".
1}
1"_
1"o
#436
0"3
0s
0D
0E
08
0".
0}
0"_
0"o
#441
1"3
1s
1D
b00000000000000100 %
1E
18
1".
1}
1"_
1"o
#446
0"3
0s
0D
0E
08
0".
0}
0"_
0"o
#451
1"3
1s
1D
b00000000000000101 %
1E
18
1".
1}
1"_
1"o
#456
0"3
0s
0D
0E
08
0".
0}
0"_
0"o
#461
1"3
1s
1D
b00000000000000110 %
1E
18
1".
1}
1"_
1"o
#466
0"3
0s
0D
0E
08
0".
0}
0"_
0"o
#471
1"3
1s
1D
b00000000000000111 %
1E
18
1".
1}
1"_
1"o
#476
0"3
0s
0D
0E
08
0".
0}
0"_
0"o
#481
1"3
1s
1D
b00000000000001000 %
1E
18
1".
1}
1"_
1"o
#486
b00000 "e
0}
