test_run_dir/debouncer_test_should_pass/Debouncer.vcd
$date
2024-03-09T16:13+0000
$end
$version
0.2
$end
$comment

$end
$timescale 1ns  $end
$scope module Debouncer $end
 $var wire 1 ! io_out $end
 $var wire 1 " fsm $end
 $var wire 27 & countReg $end
 $var wire 1 ( io_in $end
 $var wire 1 ) clock $end
 $var wire 1 - reset $end
  $scope module fsm $end
   $var wire 1 # reset $end
   $var wire 1 $ io_dout $end
   $var wire 2 % stateReg $end
   $var wire 1 ' io_runTimer $end
   $var wire 1 * io_din $end
   $var wire 27 + io_countReg $end
   $var wire 1 , clock $end
  $upscope $end
$upscope $end
$enddefinitions $end
$dumpvars
b000000000000000000000000000 &
b000000000000000000000000000 +
0!
0"
0#
0$
0'
0(
0)
0*
0,
b00 %
0-
$end
#0
1#
1-
#1
1)
1,
#6
0#
0)
0,
0-
#11
1)
1,
#16
0)
0,
#21
1)
1,
#26
0)
0,
#31
1)
1,
#36
0)
0,
#41
1)
1,
#46
0)
0,
#51
1)
1,
#56
0)
0,
#61
1)
1,
#66
0)
0,
#71
1)
1,
#76
0)
0,
#81
1)
1,
#86
1(
0)
1*
0,
#91
1!
1$
b01 %
1)
1,
#96
0)
0,
#101
1)
1,
#106
0)
0,
#111
1)
1,
#116
0)
0,
#121
1)
1,
#126
0)
0,
#131
1)
1,
#136
0)
0,
#141
1)
1,
#146
0(
0)
0*
0,
#151
b10 %
1'
1)
1,
#156
1(
0)
1*
0,
#161
b01 %
b000000000000000000000000001 &
0'
1)
b000000000000000000000000001 +
1,
#166
0(
0)
0*
0,
#171
b10 %
b000000000000000000000000000 &
1'
1)
b000000000000000000000000000 +
1,
#176
0)
0,
#181
b000000000000000000000000001 &
1)
b000000000000000000000000001 +
1,
#186
1(
0)
1*
0,
#191
b01 %
b000000000000000000000000010 &
0'
1)
b000000000000000000000000010 +
1,
#196
0(
0)
0*
0,
#201
b10 %
b000000000000000000000000000 &
1'
1)
b000000000000000000000000000 +
1,
#206
0)
0,
#211
b000000000000000000000000001 &
1)
b000000000000000000000000001 +
1,
#216
0)
0,
#221
b000000000000000000000000010 &
1)
b000000000000000000000000010 +
1,
#226
1(
0)
1*
0,
#231
b01 %
b000000000000000000000000011 &
0'
1)
b000000000000000000000000011 +
1,
#236
0(
0)
0*
0,
#241
b10 %
b000000000000000000000000000 &
1'
1)
b000000000000000000000000000 +
1,
#246
0)
0,
#251
b000000000000000000000000001 &
1)
b000000000000000000000000001 +
1,
#256
0)
0,
#261
b000000000000000000000000010 &
1)
b000000000000000000000000010 +
1,
#266
0)
0,
#271
b000000000000000000000000011 &
1)
b000000000000000000000000011 +
1,
#276
1(
0)
1*
0,
#281
b01 %
b000000000000000000000000100 &
0'
1)
b000000000000000000000000100 +
1,
#286
0(
0)
0*
0,
#291
b10 %
b000000000000000000000000000 &
1'
1)
b000000000000000000000000000 +
1,
#296
0)
0,
#301
b000000000000000000000000001 &
1)
b000000000000000000000000001 +
1,
#306
0)
0,
#311
b000000000000000000000000010 &
1)
b000000000000000000000000010 +
1,
#316
0)
0,
#321
b000000000000000000000000011 &
1)
b000000000000000000000000011 +
1,
#326
0)
0,
#331
0!
0$
b00 %
b000000000000000000000000100 &
0'
1)
b000000000000000000000000100 +
1,
#336
1(
0)
1*
0,
#341
1!
1$
b01 %
b000000000000000000000000000 &
1)
b000000000000000000000000000 +
1,
#346
0(
0)
0*
0,
#351
b10 %
1'
1)
1,
#356
0)
0,
#361
b000000000000000000000000001 &
1)
b000000000000000000000000001 +
1,
#366
0)
0,
#371
b000000000000000000000000010 &
1)
b000000000000000000000000010 +
1,
#376
0)
0,
#381
b000000000000000000000000011 &
1)
b000000000000000000000000011 +
1,
#386
0)
0,
#391
0!
0$
b00 %
b000000000000000000000000100 &
0'
1)
b000000000000000000000000100 +
1,
#396
0)
0,
#401
b000000000000000000000000000 &
1)
b000000000000000000000000000 +
1,
#406
1(
0)
1*
0,
#411
1!
1$
b01 %
1)
1,
#416
0(
0)
0*
0,
#421
b10 %
1'
1)
1,
#426
0)
0,
#431
b000000000000000000000000001 &
1)
b000000000000000000000000001 +
1,
#436
0)
0,
#441
b000000000000000000000000010 &
1)
b000000000000000000000000010 +
1,
#446
0)
0,
#451
b000000000000000000000000011 &
1)
b000000000000000000000000011 +
1,
#456
0)
0,
#461
0!
0$
b00 %
b000000000000000000000000100 &
0'
1)
b000000000000000000000000100 +
1,
#466
0)
0,
#471
b000000000000000000000000000 &
1)
b000000000000000000000000000 +
1,
#476
0)
0,
#481
1)
1,
#486
0)
0,
#491
1)
1,
#496
0)
0,
#501
1)
1,
#506
0)
0,
#511
1)
1,
#516
1(
0)
1*
0,
#521
1!
1$
b01 %
1)
1,
#526
0(
0)
0*
0,
#531
b10 %
1'
1)
1,
#536
0)
0,
#541
b000000000000000000000000001 &
1)
b000000000000000000000000001 +
1,
#546
0)
0,
#551
b000000000000000000000000010 &
1)
b000000000000000000000000010 +
1,
#556
0)
0,
#561
b000000000000000000000000011 &
1)
b000000000000000000000000011 +
1,
#566
0)
0,
#571
0!
0$
b00 %
b000000000000000000000000100 &
0'
1)
b000000000000000000000000100 +
1,
#576
0)
0,
#581
b000000000000000000000000000 &
1)
b000000000000000000000000000 +
1,
